I want to live in <a href="http://maps.google.com/maps?address=35.143,-116.104">Zzyzx, CA</a>.
I want to live in <a href="http://maps.google.com/maps?address=35.029,-95.693">Bug Tussle, OK</a>.
I want to live in <a href="http://maps.google.com/maps?address=35.392,-88.489">Sweet Lips, TN</a>.
I want to live in <a href="http://maps.google.com/maps?address=47.659,-92.198">Embarrass, MN</a>.
I want to live in <a href="http://maps.google.com/maps?address=35.851,-95.318">Okay, OK</a>.
I want to live in <a href="http://maps.google.com/maps?address=41.713,-76.334">Asylum, PA</a>.
I want to live in <a href="http://maps.google.com/maps?address=36.088,-117.959">Dunmovin, CA</a>.
