Freudian
hinddeck
isba
stinkpot
plungingly
dactylozooid
crimper
unlust
arthrotome
inflammability
Demospongiae
embathe
houndshark
counterorganization
compliantly
unbeseemingly
Inocarpus
otherwise
anthogenesis
promajority
minasragrite
gregaloid
unvisibly
tapstress
tridiametral
pyrometamorphic
streetless
matrilineal
waxweed
hymenomycetal
ireless
gadolinite
colilysin
nondiffusing
uncreated
russel
ecphoria
plastisol
dualist
rabbet
workshop
acclamation
converging
subgrade
Psychidae
on
paramylum
porpentine
reconfide
pretentiously
coimmense
matricidal
holily
alloerotic
persnickety
alway
diemaker
archmessenger
fendy
puky
galactopathy
pigeonhearted
important
backslapping
collusiveness
Lombard
Nahuatlan
metromalacia
decyl
neutralism
cog
preagriculture
subimbricate
loveless
piled
engraftation
troop
lances
chimerical
pyrosulphate
epistylar
magot
meloe
plighted
epsomite
ungruesome
brisken
ungamboling
sugescent
cinematographic
preform
paraheliotropism
Gortonite
calceiform
git
premuster
cysted
dentiparous
musicopoetic
tailrace
pseudhemal
unemancipated
hospitize
heedfully
unchivalrous
adenosclerosis
magisteriality
indulgentness
decarburization
Mario
coriandrol
zinyamunga
gooseweed
viticulturer
premorse
dextrorotatary
antidominican
boyard
prodecoration
Ordovician
imbecility
tractorism
decoat
webfoot
Marsh
coessential
cardol
symbiotism
couthie
tyrosyl
romantically
arcanum
Valsalvan
grandmotherliness
ridgewise
neback
geranial
erythroclastic
multigap
angiosteosis
counterinvective
edifice
indiscreetness
angulate
tarrock
tribular
strangership
panting
posttoxic
northwestward
decernment
Mpangwe
hydrostatician
parasaboteur
Emberiza
parcellate
insurrectionism
precongested
polyhalide
Baconist
radioluminescence
waterpot
misocapnic
saltly
pathoneurosis
Songish
perryman
semiperspicuous
Amadis
thereup
ungood
phyllosiphonic
beaverroot
waltz
inguinodynia
actinostome
beslipper
hailer
radiolite
unfomented
subcuratorship
Dreparnaudia
pachynsis
corrigibleness
millennian
strauchten
egad
consubstantialist
bronchiolitis
oversolemnly
procremation
interdebate
hoosh
iguanoid
anticeremonial
creationary
opiniatreness
wollop
Praesian
suprajural
cosalite
hematid
doubletree
kithe
infalsificable
dialogistic
lichenographist
kerrie
recremental
physoclistic
trilabe
coynye
gemellus
hematometra
onement
foreshock
nonsyllabicness
holmia
exoskeleton
wadna
bushcraft
inurbanity
fiddling
enteroneuritis
Papilioninae
strideways
dismissible
Ritschlianism
rotarianize
Cassidulina
drossy
localization
Kashyapa
herbist
Roberdsman
ankle
unprepossessingness
mesobar
extant
phagolysis
justment
entailment
serpulae
agmatology
metakinesis
serologic
sabotine
Dhritarashtra
lovesomely
ramhead
counterwheel
leechwort
overboding
supersistent
haliography
interfret
scourway
epidemicity
bromaurate
terrifying
fenestral
avocado
salver
upboulevard
taenial
nonportable
Ed
barkpeeler
Whitmanize
superchemical
vallidom
Gouda
fluoride
infilter
parnassiaceous
Foster
catarinite
Picrodendraceae
baun
printer
notching
demifigure
stonedamp
horning
weariableness
myxo
collutorium
Lesbia
unexcessive
upswallow
urostea
liveried
unpastured
mythogony
tubuliform
squeezing
badland
murder
blennophlogosis
antifrost
foredeserved
Carapidae
Crustacea
retinochorioiditis
aspiring
aporphine
anisopleurous
osteophone
sparklingly
quizziness
ectropium
xylographer
campanile
executry
Edgar
linearization
bename
pseudochylous
wearish
popeye
boutade
whillaloo
deltohedron
Kidderminster
ergot
entangling
latisept
predate
acquest
renewability
tsar
faineance
Aquitanian
Haskalah
parosmic
Willy
wheatworm
chancrous
corn
counterparole
overfatten
musnud
preaccordance
aeroides
paraformaldehyde
disalign
telegraphese
lamellirostrate
tobaccoite
Cichorium
anagyrine
trehalose
Arretine
klephtism
logrolling
discomposedly
frosting
unmonitored
bowls
weekday
Valkyrian
pseudomorphose
groinery
monolatrous
confervaceous
distomatous
cacothesis
longsomely
coalternation
interradius
snark
cosingular
prefavor
scolopaceous
engulf
Egeria
uncontract
anaxial
extirpationist
prefervid
Gymnolaema
geckotid
mound
bibation
preboyhood
cineration
prognosticable
unobedience
proaction
Larry
playmare
pelicanry
qualifier
colonalgia
niggertoe
whipstalk
slogwood
embalm
twistable
Amenism
undespatched
unridden
Hevea
mensurate
subcompensation
epidesmine
arterialize
bookwright
comatose
colloquialness
chillness
gangliocyte
tenaculum
lobbyist
woeful
protochemistry
tegularly
foreflipper
tragicomipastoral
Scomber
Monticuliporidae
swatch
sandstay
serta
insipidness
unslakable
telestial
spinage
oatfowl
rightwardly
intrashop
inhabitedness
Hippocratism
lacroixite
tameless
guimpe
retrolaryngeal
logcock
sundial
chivalresque
uteroplasty
mytilid
adultoid
theonomy
clairvoyant
press
scovel
chthonian
isolated
queller
dispopularize
squiffy
bandless
demicaponier
antecoxal
andrenid
unintoxicating
scleroscope
futuric
isograph
objurgate
tumulosity
trenchwork
gunyah
stomachlessness
underfoot
amaterialistic
phlebolithic
brachysclereid
Cetacea
kowtow
myectopia
Prosopis
loxodromic
psychologer
bivalence
