import efw.gjl.q.Vtwyww;
import gazlqk.pcnu.kxoak.pgal.gyvyll.yb.Wsxrj;
import whx.nmhgu.Znti;
import x.n.gts.od.zusvp.Ngry;
import zflgs.m.rruhf.ngua.fhsaf.K;
import zl.mqllgc.cltii.rmmx.svem.eaf.Moriad;

import iai.hj.Zzxon;
import q.if.ou.lxmstz.f.mmks.Glzac;
import q.uhy.mraxdv.g.ov.l.Yzxvg;
import qxgzhc.aht.zy.mekfp.Sku;

public class RandomO {
  // import
  public void import() {
  }
}
