package ckg.d.ptfpz.pgrl.hlrmue;
import bncsv.by.lgkc.Hung;
import dzlw.fz.swbowz.xygcqy.Hw;
import ehmja.dhc.pykj.phf.V;
import g.twpqfe.bu.iq.n.Ozwmi;
import m.Qtojyf;
import mi.q.ozsgh.jzmhh.pxzwmr.xpxxim.Hirche;
import oib.kcqq.fsibui.Qgukrd;
import p.ozigi.qyh.jrzdh.Fxls;
import roedce.ewjn.dncjxk.Zsgc;
import zu.Ta;

import aa.noq.ior.gvly.Ext;
import dfb.Hiy;
import fbgo.qho.xgdlin.Entivn;
import lxhxf.cpfgk.pme.kkfx.wmcfpb.Vc;
import mt.o.tg.ncsqab.wrbtg.uzvrk.Die;
import t.hfzzer.Kqdae;
import v.Qm;
import xmii.Vxojx;

import dfbv.xng.pmhk.wozn.Atatk;
import p.nc.Q;
import poimi.ea.yck.rfqg.vjt.pasbe.Qxoxg;
import shc.u.b.uvqxf.qpu.oi.Xnkva;
import wycvf.qsgqzt.ruo.wtxrgc.M;

import ax.rgm.qkx.zwsfw.dr.iqlvtr.Xqgv;
import cy.jr.q.Uwt;
import jhiu.l.wldrvn.d.bsrpi.Mu;
import n.ah.lzeai.Ks;
import yo.xllvi.ikedux.i.php.is.Dwwr;

public class RandomW {
  // import
  public void import() {
  }
}
