[
  {
    "input": [
      6,
      7,
      8,
      9
    ],
    "output": [

    ],
    "registers": {
      "pc": 0,
      "ic": 0,
      "r0": 0,
      "r1": 0,
      "r2": 0,
      "r3": 0,
      "r4": 0,
      "r5": 0,
      "r6": 0,
      "r7": 0,
      "r8": 0,
      "r9": 0
    },
    "instructions": [
      "input r0\n",
      "output r0\n"
    ],
    "labels": {
    }
  },
  {
    "input": [
      6,
      7,
      8,
      9
    ],
    "output": [

    ],
    "registers": {
      "pc": 1,
      "ic": 1,
      "r0": 6,
      "r1": 0,
      "r2": 0,
      "r3": 0,
      "r4": 0,
      "r5": 0,
      "r6": 0,
      "r7": 0,
      "r8": 0,
      "r9": 0
    },
    "instructions": [
      "input r0\n",
      "output r0\n"
    ],
    "labels": {
    }
  },
  {
    "input": [
      6,
      7,
      8,
      9
    ],
    "output": [
      6
    ],
    "registers": {
      "pc": 2,
      "ic": 1,
      "r0": 6,
      "r1": 0,
      "r2": 0,
      "r3": 0,
      "r4": 0,
      "r5": 0,
      "r6": 0,
      "r7": 0,
      "r8": 0,
      "r9": 0
    },
    "instructions": [
      "input r0\n",
      "output r0\n"
    ],
    "labels": {
    }
  }
]
